[
  {
    "name": "FHAZ",
    "value": "FHAZ",
    "rovers": ["curiosity", "opportunity", "spirit"]
  },
  {
    "name": "RHAZ",
    "value": "RHAZ",
    "rovers": ["curiosity", "opportunity", "spirit"]
  },
  {
    "name": "MAST",
    "value": "MAST",
    "rovers": ["curiosity"]
  },
  {
    "name": "CHEMCAM",
    "value": "CHEMCAM",
    "rovers": ["curiosity"]
  },
  {
    "name": "MAHLI",
    "value": "MAHLI",
    "rovers": ["curiosity"]
  },
  {
    "name": "MARDI",
    "value": "MARDI",
    "rovers": ["curiosity"]
  },
  {
    "name": "NAVCAM",
    "value": "NAVCAM",
    "rovers": ["curiosity", "opportunity", "spirit"]
  },
  {
    "name": "PANCAM",
    "value": "PANCAM",
    "rovers": ["opportunity", "spirit"]
  },
  {
    "name": "MINITES",
    "value": "MINITES",
    "rovers": ["opportunity", "spirit"]
  }
]


